[api-updater (non-obsolete-error-filter)] 16/09/2021 8:38:02 a. m. : Starting C:/Program Files/Unity/Hub/Editor/2020.3.16f1/Editor/Data/Tools/ScriptUpdater/APIUpdater.NonObsoleteApiUpdaterDetector.exe
[api-updater (non-obsolete-error-filter)] 
----------------------------------
jit/startup time      : 876.0707ms
moved types parse time: 70ms
candidates parse time : 2ms
C# parse time         : 283ms
candidates check time : 41ms
console write time    : 0ms

[api-updater (non-obsolete-error-filter)] 16/09/2021 8:44:38 a. m. : Starting C:/Program Files/Unity/Hub/Editor/2020.3.16f1/Editor/Data/Tools/ScriptUpdater/APIUpdater.NonObsoleteApiUpdaterDetector.exe
[api-updater (non-obsolete-error-filter)] 
----------------------------------
jit/startup time      : 121.3775ms
moved types parse time: 77ms
candidates parse time : 2ms
C# parse time         : 285ms
candidates check time : 45ms
console write time    : 1ms

[api-updater (non-obsolete-error-filter)] 16/09/2021 8:45:00 a. m. : Starting C:/Program Files/Unity/Hub/Editor/2020.3.16f1/Editor/Data/Tools/ScriptUpdater/APIUpdater.NonObsoleteApiUpdaterDetector.exe
[api-updater (non-obsolete-error-filter)] 
----------------------------------
jit/startup time      : 114.404ms
moved types parse time: 89ms
candidates parse time : 1ms
C# parse time         : 261ms
candidates check time : 46ms
console write time    : 0ms

[api-updater (non-obsolete-error-filter)] 16/09/2021 8:45:30 a. m. : Starting C:/Program Files/Unity/Hub/Editor/2020.3.16f1/Editor/Data/Tools/ScriptUpdater/APIUpdater.NonObsoleteApiUpdaterDetector.exe
[api-updater (non-obsolete-error-filter)] 
----------------------------------
jit/startup time      : 108.7213ms
moved types parse time: 66ms
candidates parse time : 2ms
C# parse time         : 257ms
candidates check time : 42ms
console write time    : 0ms

